module necheff.net/nsddyn

go 1.23.0

toolchain go1.24.0

require (
	github.com/bwesterb/go-zonefile v1.0.1
	github.com/onsi/ginkgo/v2 v2.22.2
	github.com/onsi/gomega v1.36.2
	golang.org/x/crypto v0.35.0
	golang.org/x/sys v0.30.0
	golang.org/x/term v0.29.0
)

require (
	github.com/go-logr/logr v1.4.2 // indirect
	github.com/go-task/slim-sprig/v3 v3.0.0 // indirect
	github.com/google/go-cmp v0.7.0 // indirect
	github.com/google/pprof v0.0.0-20250208200701-d0013a598941 // indirect
	golang.org/x/net v0.35.0 // indirect
	golang.org/x/text v0.22.0 // indirect
	golang.org/x/tools v0.30.0 // indirect
	gopkg.in/yaml.v3 v3.0.1 // indirect
)
